[
   
    {
        
        "response": {
            "buy_sell_indicator": "Sell",
            "base_currency_code": "GBP",
            "base_currency_amount": 100,
	        "contra_currency_code": "USD",
            "contra_currency_amount": 121.96,
            "receiving_method": "FXTrade",
            "exchange_rate": 1.0987,
            "exchange_rate_precision": 5,
            "exchange_rate_conversion_rule": "Direct" 
        }
        
    }
]